<?xml version="1.0" encoding="UTF-8"?>
<svg width="34px" height="32px" viewBox="0 0 34 32" version="1.1" xmlns="http://www.w3.org/2000/svg" xmlns:xlink="http://www.w3.org/1999/xlink">
    <!-- Generator: Sketch 61.2 (89653) - https://sketch.com -->
    <title>idea</title>
    <desc>Created with Sketch.</desc>
    <g id="Email" stroke="none" stroke-width="1" fill="none" fill-rule="evenodd">
        <g id="Desktop-HD-Copy-8" transform="translate(-132.000000, -582.000000)" fill="#4669FF" fill-rule="nonzero">
            <g id="Group-6" transform="translate(111.000000, 159.000000)">
                <g id="Group-2">
                    <g id="Group" transform="translate(12.000000, 242.000000)">
                        <g id="idea" transform="translate(9.000000, 181.000000)">
                            <path d="M11.6855309,23.9043951 L11.6855309,31.8202469 L22.2897778,31.8202469 L22.2897778,23.9043951 C24.7367901,22.176 26.1874568,19.3916049 26.1874568,16.390716 C26.1874568,11.3173333 22.0602469,7.1897284 16.9876543,7.1897284 C11.9146667,7.1897284 7.78745679,11.3173333 7.78745679,16.390716 C7.78745679,19.3916049 9.23851852,22.1763951 11.6855309,23.9043951 Z M21.1045926,30.6350617 L12.870716,30.6350617 L12.870716,30.4580741 L21.1045926,28.2666667 L21.1045926,30.6350617 Z M21.1045926,27.0396049 L12.870716,29.2310123 L12.870716,27.7127901 L21.1045926,25.5209877 L21.1045926,27.0396049 Z M16.9876543,8.37491358 C21.4072099,8.37491358 25.0022716,11.9707654 25.0022716,16.390716 C25.0022716,19.0984691 23.6452346,21.6047407 21.3720494,23.0953086 L21.1045926,23.270716 L21.1045926,24.294716 L17.5802469,25.2329877 L17.5802469,18.3901235 L18.9657284,18.3901235 L18.9657284,17.2049383 L15.0091852,17.2049383 L15.0091852,18.3901235 L16.3950617,18.3901235 L16.3950617,25.5482469 L12.8711111,26.4865185 L12.8711111,23.2711111 L12.6032593,23.0957037 C10.3300741,21.6055309 8.97303704,19.0988642 8.97303704,16.3911111 C8.97264198,11.9707654 12.5680988,8.37491358 16.9876543,8.37491358 Z" id="Shape"></path>
                            <rect id="Rectangle" x="16.3950617" y="0.377283951" width="1.18518519" height="4.91377778"></rect>
                            <rect id="Rectangle" x="0.197530864" y="15.7981235" width="5.32385185" height="1.18518519"></rect>
                            <rect id="Rectangle" x="28.4539259" y="15.7981235" width="5.32385185" height="1.18518519"></rect>
                            <polygon id="Rectangle" transform="translate(6.622034, 6.304712) rotate(32.064291) translate(-6.622034, -6.304712) " points="3.8370893 5.71208692 9.40697881 5.71208692 9.40697881 6.89733791 3.8370893 6.89733791"></polygon>
                            <polygon id="Rectangle" transform="translate(27.354111, 6.304835) rotate(57.927812) translate(-27.354111, -6.304835) " points="26.7615039 3.52017595 27.9467174 3.52017595 27.9467174 9.08949413 26.7615039 9.08949413"></polygon>
                        </g>
                    </g>
                </g>
            </g>
        </g>
    </g>
</svg>